Create Shift Table — qc_shift • QCfuns
…
param <- data.frame(PARAM = c("Test1", "Test2"))
visit <- data.frame(AVISIT = c("Baseline", "Visit1", "Visit2"))

adlb0 <- merge(adsl, param)
adlb <- merge(adlb0, visit)

adlb$ANRIND <- factor(sample(c("Low", "Medium", "High"), 60, replace = TRUE), 
                      levels = c("Low", "Medium", "High"))
adlb$BNRIND <- factor(sample(c("Low", "Medium", "High"), 60, replace = TRUE), 
                      levels = c("Low", "Medium", "High"))

tab1 <- qc_shift(adlb, "ANRIND", "BNRIND", rowvar = c("PARAM", "TRT01P", "AVISIT"))
tab1
#> # A tibble: 98 × 6
#>    row_text     N Low   Medium High  Total
#>    <chr>    <int> <chr> <chr>  <chr> <chr>
#>  1 Test1       NA NA    NA     NA    NA   
#>  2 A           NA NA    NA     NA    NA   
#>  3 Baseline     1 NA    NA     NA    NA   
#>  4 Low         NA 1     0      0     1    
#>  5 Medium      NA 0     0      0     0    
#>  6 High        NA 0     0      0     0    
#>  7 Total       NA 1     0      0     1    
#>  8 Visit1       1 NA    NA     NA    NA   
#>  9 Low         NA 1     0      0     1    
#> 10 Medium      NA 0     0      0     0    
#> # ℹ 88 more rows
…
